<svg width="400" height="123" viewBox="0 0 400 123" fill="none"
	xmlns="http://www.w3.org/2000/svg">
	<path fill-rule="evenodd" clip-rule="evenodd" d="M94.8492 86.5114C89.6174 107.437 70.6322 122.818 48.0672 122.839C21.5024 122.818 -0.0451988 101.266 7.12013e-05 74.6647C-0.0451988 48.0749 21.5024 26.5321 48.0672 26.544C70.5252 26.5321 89.4647 42.1639 94.8492 62.9122H75.2953C70.83 52.5563 60.4741 45.348 48.479 45.3937C32.27 45.348 19.1422 58.4555 19.1422 74.6647C19.1422 90.8774 32.27 104.01 48.479 104.01C60.4741 104.01 70.8216 96.8139 75.2953 86.5114" fill="white"/>
	<path fill-rule="evenodd" clip-rule="evenodd" d="M146.376 26.544C119.828 26.5109 98.2554 48.075 98.1892 74.6317C98.2554 101.262 119.828 122.797 146.376 122.814C173.002 122.797 194.546 101.262 194.592 74.6317C194.546 48.075 173.002 26.5109 146.376 26.544ZM146.376 103.697C130.364 103.725 117.348 90.6926 117.348 74.6317C117.348 58.6208 130.364 45.6032 146.376 45.5744C162.446 45.6032 175.461 58.6208 175.461 74.6317C175.461 90.6926 162.446 103.725 146.376 103.697Z" fill="white"/>
	<path d="M200.672 0V122.814H221.803V0H200.672Z" fill="white"/>
	<path fill-rule="evenodd" clip-rule="evenodd" d="M277.359 104.315C262.575 104.27 250.258 93.4027 250.234 80.3037C250.258 79.8306 250.296 79.3523 250.345 78.908H319.593C319.622 40.7268 299.891 26.3711 275.625 26.3711C256.906 26.3711 229.848 38.4034 229.893 74.1332C229.848 103.722 251.321 122.835 275.625 122.814C296.554 122.835 314.295 110.197 318.658 89.3292H299.231C296.233 98.8278 287.772 104.27 277.359 104.315ZM275.319 43.3546C287.513 43.3546 297.597 51.8611 299.104 62.6037L251.981 62.4926L251.482 62.7191C252.841 51.8281 263 43.3546 275.319 43.3546Z" fill="white"/>
	<path fill-rule="evenodd" clip-rule="evenodd" d="M378.918 56.8164H397.232C397.232 56.8164 398.056 40.4383 384.384 32.2243C384.384 32.2243 377.913 26.3464 359.883 26.3752C359.883 26.3752 341.718 26.1403 333.446 34.362C333.446 34.362 324.89 40.8174 324.841 53.4916C324.841 53.4916 323.338 65.685 335.287 73.3385C335.287 73.3385 345.033 77.976 354.434 80.7199C354.434 80.7199 369.683 84.8638 372.233 86.4003C372.233 86.4003 385.345 92.4512 377.488 100.08C377.488 100.08 373.991 104.998 362.107 105.023C362.107 105.023 341.313 105.756 341.342 89.9472H322.736C322.736 89.9472 320.973 106.778 335.287 116.149C335.287 116.149 344.448 122.398 362.203 122.234C362.203 122.234 379.268 122.036 388.339 115.536C388.339 115.536 400.012 107.144 399.976 92.8548C399.976 92.8548 401.376 78.1871 382.967 70.018C382.967 70.018 364.373 63.7237 359.644 62.4925C359.644 62.4925 341.313 58.4385 344.972 49.2408C344.972 49.2408 345.82 42.9796 360.485 42.9796C360.485 42.9796 370.869 42.7939 375.384 48.6354C375.384 48.6354 378.494 52.1858 378.918 56.8164Z" fill="white"/>
</svg>